DATA334Blog - Blog Post 1
…
--- There are 2 files available ---

--- Starting Download ---

    Downloading file 1 of 2: `predictions.csv`
    Downloading file 2 of 2: `groundhogs.csv`

--- Download complete ---

groundhogs <- tuesdata$groundhogs
predictions <- tuesdata$predictions

groundhogs

# A tibble: 75 × 17
      id slug     shortname name  city  region country latitude longitude source
   <dbl> <chr>    <chr>     <chr> <chr> <chr>  <chr>      <dbl>     <dbl> <chr> 
 1     1 punxsut… Phil      Punx… Punx… Penns… USA         40.9     -79.0 "http…
 2     2 octorar… Orphie    Octo… Quar… Penns… USA         39.8     -76.1 "http…
 3     3 wiarton… Willie    Wiar… Wiar… Ontar… Canada      44.7     -81.1 "http…
 4     4 jimmy-t… Jimmy     Jimm… Sun … Wisco… USA         43.2     -89.2 "http…
 5     5 concord… Charlie   Conc… Athe… West … USA         37.4     -81.0 "http…
 6     6 buckeye… Chuck     Buck… Mari… Ohio   USA         40.6     -83.1 "http…
 7     7 general… Beau      Gene… Jack… Georg… USA         33.2     -83.9 "http…
 8     8 french-… Freddie   Fren… Upsh… West … USA         38.9     -80.3 "http…
 9     9 gertie-… Gertie    Gert… Hann… Illin… USA         40.7     -89.7 "http…
10    10 dunkirk… Dave      Dunk… Dunk… New Y… USA         42.5     -79.4 "http…
# ℹ 65 more rows
# ℹ 7 more variables: current_prediction <chr>, is_groundhog <lgl>, type <chr>,
#   active <lgl>, description <chr>, image <chr>, predictions_count <dbl>

predictions

# A tibble: 1,462 × 4
      id  year shadow details                                                   
   <dbl> <dbl> <lgl>  <chr>                                                     
 1     1  1886 NA     Groundhog Day first recognized in Punxsutawney by Weather…
 2     1  1887 TRUE   First Official trek to Gobbler’s Knob. Saw Shadow.        
 3     1  1888 TRUE   Saw Shadow.                                               
 4     1  1889 NA     No Record.                                                
 5     1  1890 FALSE  No Shadow.                                                
 6     1  1891 NA     No Record.                                                
 7     1  1892 NA     No Record.                                                
 8     1  1893 NA     No Record.                                                
 9     1  1894 NA     No Record.                                                
10     1  1895 NA     No Record.                                                
# ℹ 1,452 more rows
